{
  "data": [
    {
      "id": "307289121",
      "title": "Biogesic_SurveyTypeA_Ad With Carrot",
      "nickname": "",
      "href": "https://api.surveymonkey.com/v3/surveys/307289121"
    },
    {
      "id": "308338098",
      "title": "Bioflu_SurveyTypeB_Community With Carrot",
      "nickname": "",
      "href": "https://api.surveymonkey.com/v3/surveys/308338098"
    },
    {
      "id": "307247947",
      "title": "Solmux_SurveyTypeA_Ad With Carrot",
      "nickname": "",
      "href": "https://api.surveymonkey.com/v3/surveys/307247947"
    },
    {
      "id": "308338300",
      "title": "Enervon_SurveyTypeB_Community With Carrot",
      "nickname": "",
      "href": "https://api.surveymonkey.com/v3/surveys/308338300"
    },
    {
      "id": "307288279",
      "title": "Enervon_SurveyTypeA_Ad With Carrot",
      "nickname": "",
      "href": "https://api.surveymonkey.com/v3/surveys/307288279"
    },
    {
      "id": "308338227",
      "title": "Decolgen_SurveyTypeB_Community With Carrot",
      "nickname": "",
      "href": "https://api.surveymonkey.com/v3/surveys/308338227"
    },
    {
      "id": "308338148",
      "title": "Biogesic_SurveyTypeB_Community With Carrot",
      "nickname": "",
      "href": "https://api.surveymonkey.com/v3/surveys/308338148"
    },
    {
      "id": "307288679",
      "title": "Decolgen_SurveyTypeA_Ad With Carrot",
      "nickname": "",
      "href": "https://api.surveymonkey.com/v3/surveys/307288679"
    },
    {
      "id": "307289688",
      "title": "Alaxan_SurveyTypeA_Ad With Carrot",
      "nickname": "",
      "href": "https://api.surveymonkey.com/v3/surveys/307289688"
    },
    {
      "id": "307288910",
      "title": "Conzace_SurveyTypeA_Ad With Carrot",
      "nickname": "",
      "href": "https://api.surveymonkey.com/v3/surveys/307288910"
    },
    {
      "id": "307249281",
      "title": "Neozep_SurveyTypeA_Ad With Carrot",
      "nickname": "",
      "href": "https://api.surveymonkey.com/v3/surveys/307249281"
    },
    {
      "id": "307249687",
      "title": "Kremil-S_SurveyTypeA_Ad With Carrot",
      "nickname": "",
      "href": "https://api.surveymonkey.com/v3/surveys/307249687"
    },
    {
      "id": "307248481",
      "title": "Rexidol Forte_SurveyTypeA_Ad With Carrot",
      "nickname": "",
      "href": "https://api.surveymonkey.com/v3/surveys/307248481"
    },
    {
      "id": "308338190",
      "title": "Conzace_SurveyTypeB_Community With Carrot",
      "nickname": "",
      "href": "https://api.surveymonkey.com/v3/surveys/308338190"
    },
    {
      "id": "308340201",
      "title": "Solmux_SurveyTypeB_Community With Carrot",
      "nickname": "",
      "href": "https://api.surveymonkey.com/v3/surveys/308340201"
    },
    {
      "id": "307289886",
      "title": "Allerta_SurveyTypeA_Ad With Carrot",
      "nickname": "",
      "href": "https://api.surveymonkey.com/v3/surveys/307289886"
    },
    {
      "id": "308340121",
      "title": "Revicon_SurveyTypeB_Community With Carrot",
      "nickname": "",
      "href": "https://api.surveymonkey.com/v3/surveys/308340121"
    },
    {
      "id": "307288506",
      "title": "Diatabs_SurveyTypeA_Ad With Carrot",
      "nickname": "",
      "href": "https://api.surveymonkey.com/v3/surveys/307288506"
    },
    {
      "id": "308338055",
      "title": "Allerta_SurveyTypeB_Community With Carrot",
      "nickname": "",
      "href": "https://api.surveymonkey.com/v3/surveys/308338055"
    },
    {
      "id": "308338341",
      "title": "Forti-D_SurveyTypeB_Community With Carrot",
      "nickname": "",
      "href": "https://api.surveymonkey.com/v3/surveys/308338341"
    },
    {
      "id": "308338439",
      "title": "Kremil-S_SurveyTypeB_Community With Carrot",
      "nickname": "",
      "href": "https://api.surveymonkey.com/v3/surveys/308338439"
    },
    {
      "id": "307248920",
      "title": "Neurogen-E_SurveyTypeA_Ad With Carrot",
      "nickname": "",
      "href": "https://api.surveymonkey.com/v3/surveys/307248920"
    },
    {
      "id": "308338263",
      "title": "Diatabs_SurveyTypeB_Community With Carrot",
      "nickname": "",
      "href": "https://api.surveymonkey.com/v3/surveys/308338263"
    },
    {
      "id": "307249462",
      "title": "Medicol_SurveyTypeA_Ad With Carrot",
      "nickname": "",
      "href": "https://api.surveymonkey.com/v3/surveys/307249462"
    },
    {
      "id": "308338471",
      "title": "Maxvit_SurveyTypeB_Community With Carrot",
      "nickname": "",
      "href": "https://api.surveymonkey.com/v3/surveys/308338471"
    },
    {
      "id": "308340079",
      "title": "Rexidol_SurveyTypeB_Community With Carrot",
      "nickname": "",
      "href": "https://api.surveymonkey.com/v3/surveys/308340079"
    },
    {
      "id": "307289277",
      "title": "Bioflu_SurveyTypeA_Ad With Carrot",
      "nickname": "",
      "href": "https://api.surveymonkey.com/v3/surveys/307289277"
    },
    {
      "id": "307083295",
      "title": "Tuseran_SurveyTypeA_Ad With Carrot",
      "nickname": "",
      "href": "https://api.surveymonkey.com/v3/surveys/307083295"
    },
    {
      "id": "308338517",
      "title": "Medicol_SurveyTypeB_Community With Carrot",
      "nickname": "",
      "href": "https://api.surveymonkey.com/v3/surveys/308338517"
    },
    {
      "id": "308338683",
      "title": "Neurogen-E_SurveyTypeB_Community With Carrot",
      "nickname": "",
      "href": "https://api.surveymonkey.com/v3/surveys/308338683"
    },
    {
      "id": "308338631",
      "title": "Neozep_SurveyTypeB_Community With Carrot",
      "nickname": "",
      "href": "https://api.surveymonkey.com/v3/surveys/308338631"
    },
    {
      "id": "308337967",
      "title": "Alaxan_SurveyTypeB_Community With Carrot",
      "nickname": "",
      "href": "https://api.surveymonkey.com/v3/surveys/308337967"
    },
    {
      "id": "308340171",
      "title": "Skelan_SurveyTypeB_Community With Carrot",
      "nickname": "",
      "href": "https://api.surveymonkey.com/v3/surveys/308340171"
    },
    {
      "id": "308340239",
      "title": "Tuseran_SurveyTypeB_Community With Carrot",
      "nickname": "",
      "href": "https://api.surveymonkey.com/v3/surveys/308340239"
    },
    {
      "id": "308338389",
      "title": "HHK_SurveyTypeB_Community With Carrot",
      "nickname": "",
      "href": "https://api.surveymonkey.com/v3/surveys/308338389"
    },
    {
      "id": "308338551",
      "title": "Menthosoothe_SurveyTypeB_Community With Carrot",
      "nickname": "",
      "href": "https://api.surveymonkey.com/v3/surveys/308338551"
    },
    {
      "id": "310044153",
      "title": "Alaxan_Adhoc_Youth 18-36 With Carrot",
      "nickname": "",
      "href": "https://api.surveymonkey.com/v3/surveys/310044153"
    },
    {
      "id": "310044247",
      "title": "Skelan_Adhoc_Mature Adults 45-75 With Carrot",
      "nickname": "",
      "href": "https://api.surveymonkey.com/v3/surveys/310044247"
    },
    {
      "id": "310043978",
      "title": "Biogesic_Adhoc_Youth 18-24 With Carrot",
      "nickname": "",
      "href": "https://api.surveymonkey.com/v3/surveys/310043978"
    },
    {
      "id": "308338592",
      "title": "Myracof_SurveyTypeB_Community With Carrot",
      "nickname": "",
      "href": "https://api.surveymonkey.com/v3/surveys/308338592"
    },
    {
      "id": "307488035",
      "title": "Skelan_SurveyTypeB_Community",
      "nickname": "",
      "href": "https://api.surveymonkey.com/v3/surveys/307488035"
    },
    {
      "id": "307491178",
      "title": "Rexidol_SurveyTypeB_Community",
      "nickname": "",
      "href": "https://api.surveymonkey.com/v3/surveys/307491178"
    },
    {
      "id": "307496788",
      "title": "Allerta_SurveyTypeB_Community",
      "nickname": "",
      "href": "https://api.surveymonkey.com/v3/surveys/307496788"
    },
    {
      "id": "307496614",
      "title": "Alaxan_SurveyTypeB_Community",
      "nickname": "",
      "href": "https://api.surveymonkey.com/v3/surveys/307496614"
    },
    {
      "id": "306538499",
      "title": "Tuseran_SurveyTypeB_Community",
      "nickname": "",
      "href": "https://api.surveymonkey.com/v3/surveys/306538499"
    },
    {
      "id": "307487786",
      "title": "Solmux_SurveyTypeB_Community",
      "nickname": "",
      "href": "https://api.surveymonkey.com/v3/surveys/307487786"
    },
    {
      "id": "307488545",
      "title": "Revicon_SurveyTypeB_Community",
      "nickname": "",
      "href": "https://api.surveymonkey.com/v3/surveys/307488545"
    },
    {
      "id": "307491235",
      "title": "Neurogen-E_SurveyTypeB_Community",
      "nickname": "",
      "href": "https://api.surveymonkey.com/v3/surveys/307491235"
    },
    {
      "id": "307491295",
      "title": "Neozep_SurveyTypeB_Community",
      "nickname": "",
      "href": "https://api.surveymonkey.com/v3/surveys/307491295"
    },
    {
      "id": "307491909",
      "title": "Diatabs_SurveyTypeB_Community",
      "nickname": "",
      "href": "https://api.surveymonkey.com/v3/surveys/307491909"
    }
  ],
  "per_page": 50,
  "page": 1,
  "total": 85,
  "links": {
    "self": "https://api.surveymonkey.com/v3/surveys/?page=1&per_page=50",
    "next": "https://api.surveymonkey.com/v3/surveys/?page=2&per_page=50",
    "last": "https://api.surveymonkey.com/v3/surveys/?page=2&per_page=50"
  }
}